<?xml version="1.0" encoding="UTF-8" standalone="no"?>
<!-- Created with Inkscape (http://www.inkscape.org/) -->

<svg
   xmlns:dc="http://purl.org/dc/elements/1.1/"
   xmlns:cc="http://creativecommons.org/ns#"
   xmlns:rdf="http://www.w3.org/1999/02/22-rdf-syntax-ns#"
   xmlns:svg="http://www.w3.org/2000/svg"
   xmlns="http://www.w3.org/2000/svg"
   xmlns:sodipodi="http://sodipodi.sourceforge.net/DTD/sodipodi-0.dtd"
   xmlns:inkscape="http://www.inkscape.org/namespaces/inkscape"
   width="260"
   height="255"
   id="svg2"
   version="1.1"
   inkscape:version="0.48.3.1 r9886"
   sodipodi:docname="pilprev.svg">
  <defs
     id="defs4" />
  <sodipodi:namedview
     id="base"
     pagecolor="#ffffff"
     bordercolor="#666666"
     borderopacity="1.0"
     inkscape:pageopacity="0.0"
     inkscape:pageshadow="2"
     inkscape:zoom="1.979899"
     inkscape:cx="142.49251"
     inkscape:cy="142.23292"
     inkscape:document-units="px"
     inkscape:current-layer="layer1"
     showgrid="false"
     units="px"
     inkscape:window-width="1600"
     inkscape:window-height="838"
     inkscape:window-x="-8"
     inkscape:window-y="-8"
     inkscape:window-maximized="1" />
  <metadata
     id="metadata7">
    <rdf:RDF>
      <cc:Work
         rdf:about="">
        <dc:format>image/svg+xml</dc:format>
        <dc:type
           rdf:resource="http://purl.org/dc/dcmitype/StillImage" />
        <dc:title></dc:title>
      </cc:Work>
    </rdf:RDF>
  </metadata>
  <g
     inkscape:label="Calque 1"
     inkscape:groupmode="layer"
     id="layer1"
     transform="translate(0,-797.36089)">
    <g
       style="font-size:268.84539795px;font-style:normal;font-variant:normal;font-weight:bold;font-stretch:normal;line-height:125%;letter-spacing:0px;word-spacing:0px;fill:#000000;fill-opacity:1;stroke:none;font-family:Adobe Gothic Std B;-inkscape-font-specification:Adobe Gothic Std B Bold"
       id="text2985">
      <path
         d="m 69.071603,1031.6466 0,-77.42647 c 4.032565,0.76179 8.871715,1.12025 14.517464,1.07537 10.698827,0.19424 22.039963,-1.59804 34.023433,-5.37684 11.98326,-3.77864 22.24903,-10.70879 30.79734,-20.79045 8.54803,-10.08146 13.01877,-24.47942 13.41223,-43.19393 -0.0562,-9.62215 -1.82603,-18.40431 -5.30963,-26.34651 -3.48389,-7.94186 -8.34544,-14.57329 -14.58467,-19.89431 -6.58676,-5.62308 -14.78643,-9.76773 -24.59904,-12.43394 -9.81283,-2.66581 -21.238602,-3.98761 -34.277346,-3.96541 -11.420245,0.0282 -21.580221,0.44268 -30.479961,1.2434 -8.899826,0.80113 -16.573014,1.82049 -23.019585,3.05807 l 0,204.05102 z m 0,-175.82262 c 1.74181,-0.41989 4.038167,-0.78955 6.889076,-1.10898 2.850777,-0.31907 6.289709,-0.4871 10.316808,-0.50407 11.145648,0.0226 19.905403,2.86783 26.279303,8.53573 6.37368,5.66825 9.62219,14.02474 9.74552,25.06951 -0.0897,11.27469 -3.53987,20.11286 -10.35042,26.51453 -6.81076,6.40191 -16.444255,9.66161 -28.900506,9.77913 -2.93493,0.006 -5.533733,-0.0727 -7.796417,-0.23523 -2.262815,-0.16232 -4.323934,-0.44237 -6.183364,-0.84014 z"
         style="font-family:Adobe Gothic Std B;-inkscape-font-specification:Adobe Gothic Std B Bold"
         id="path3003" />
    </g>
    <g
       style="font-size:85.77176666px;font-style:normal;font-variant:normal;font-weight:bold;font-stretch:normal;line-height:125%;letter-spacing:0.02662348px;word-spacing:0px;fill:#000000;fill-opacity:1;stroke:none;font-family:Adobe Gothic Std B;-inkscape-font-specification:Adobe Gothic Std B Bold"
       id="text2989">
      <path
         d="m 103.1168,1031.6466 0,-24.7019 c 1.28654,0.243 2.83041,0.3574 4.63162,0.343 3.41332,0.062 7.03157,-0.5098 10.85475,-1.7154 3.82311,-1.2055 7.09827,-3.4165 9.8255,-6.63291 2.72715,-3.21636 4.15348,-7.80985 4.27901,-13.78048 -0.0179,-3.06983 -0.58257,-5.87167 -1.69397,-8.40553 -1.11149,-2.53375 -2.66251,-4.64942 -4.65306,-6.34703 -2.10142,-1.79397 -4.71742,-3.11627 -7.84802,-3.96689 -3.13066,-0.85049 -6.77591,-1.2722 -10.93575,-1.26512 -3.64349,0.009 -6.8849,0.14123 -9.724255,0.39669 -2.839379,0.2556 -5.287413,0.58081 -7.344111,0.97564 l 0,65.09993 z m 0,-56.09401 c 0.5557,-0.13396 1.28833,-0.25189 2.19788,-0.3538 0.9095,-0.1018 2.00665,-0.1554 3.29144,-0.16082 3.55588,0.007 6.35057,0.91494 8.38409,2.72322 2.03344,1.80838 3.06984,4.47442 3.10918,7.99811 -0.0286,3.59705 -1.12935,6.41676 -3.30217,8.45913 -2.17289,2.04245 -5.24633,3.08242 -9.22034,3.11991 -0.93636,0.002 -1.76547,-0.0232 -2.48735,-0.0751 -0.72193,-0.0518 -1.3795,-0.14113 -1.97273,-0.26803 z"
         style="letter-spacing:12px;font-family:Adobe Gothic Std B;-inkscape-font-specification:Adobe Gothic Std B Bold"
         id="path2996" />
      <path
         d="m 166.63213,1031.6466 0,-65.95763 -12.69406,0 0,65.95763 z"
         style="letter-spacing:12px;font-family:Adobe Gothic Std B;-inkscape-font-specification:Adobe Gothic Std B Bold"
         id="path2998" />
      <path
         d="m 204.26314,1020.9253 0,-55.23633 -12.69406,0 0,65.95763 36.28099,0 0,-10.7213 z"
         style="letter-spacing:12px;font-family:Adobe Gothic Std B;-inkscape-font-specification:Adobe Gothic Std B Bold"
         id="path3000" />
    </g>
  </g>
</svg>
